-----------Students----------ID UserName FirstName LastName
--#END#--
-----------Sponsors----------
ID UserName FirstName LastName
--#END#--
-----------Auditors----------
ID UserName FirstName LastName
