<?xml version="1.0" encoding="UTF-8" standalone="no"?>
<!DOCTYPE svg PUBLIC "-//W3C//DTD SVG 1.1//EN"
 "http://www.w3.org/Graphics/SVG/1.1/DTD/svg11.dtd">
<!-- Generated by graphviz version 2.40.1 (20161225.0304)
 -->
<!-- Title: models_diagram Pages: 1 -->
<svg width="1948pt" height="1541pt"
 viewBox="0.00 0.00 1947.67 1541.00" xmlns="http://www.w3.org/2000/svg" xmlns:xlink="http://www.w3.org/1999/xlink">
<g id="graph0" class="graph" transform="scale(1 1) rotate(0) translate(4 1537)">
<title>models_diagram</title>
<polygon fill="transparent" stroke="transparent" points="-4,4 -4,-1537 1943.6728,-1537 1943.6728,4 -4,4"/>
<!-- _diagram_info -->
<g id="node1" class="node">
<title>_diagram_info</title>
<text text-anchor="start" x="647.2936" y="-1350.6" font-family="Times,serif" font-size="13.00" fill="#000000">Models diagram</text>
<text text-anchor="start" x="647.2936" y="-1337.6" font-family="Times,serif" font-size="13.00" fill="#000000">Date: Jan 28 2017 &#45; 23:10</text>
<text text-anchor="start" x="647.2936" y="-1324.6" font-family="Times,serif" font-size="13.00" fill="#000000">Migration version: 20170127204546</text>
<text text-anchor="start" x="647.2936" y="-1311.6" font-family="Times,serif" font-size="13.00" fill="#000000">Generated by RailRoady 1.5.2</text>
<text text-anchor="start" x="647.2936" y="-1298.6" font-family="Times,serif" font-size="13.00" fill="#000000">http://railroady.prestonlee.com</text>
</g>
<!-- Address -->
<g id="node2" class="node">
<title>Address</title>
<path fill="none" stroke="#000000" d="M394.1191,-485.5C394.1191,-485.5 617.8437,-485.5 617.8437,-485.5 623.8437,-485.5 629.8437,-491.5 629.8437,-497.5 629.8437,-497.5 629.8437,-671.5 629.8437,-671.5 629.8437,-677.5 623.8437,-683.5 617.8437,-683.5 617.8437,-683.5 394.1191,-683.5 394.1191,-683.5 388.1191,-683.5 382.1191,-677.5 382.1191,-671.5 382.1191,-671.5 382.1191,-497.5 382.1191,-497.5 382.1191,-491.5 388.1191,-485.5 394.1191,-485.5"/>
<text text-anchor="middle" x="505.9814" y="-668.3" font-family="Times,serif" font-size="14.00" fill="#000000">Address</text>
<polyline fill="none" stroke="#000000" points="382.1191,-661.5 629.8437,-661.5 "/>
<text text-anchor="start" x="390.1191" y="-646.3" font-family="Times,serif" font-size="14.00" fill="#000000">zip :character varying</text>
<text text-anchor="start" x="390.1191" y="-632.3" font-family="Times,serif" font-size="14.00" fill="#000000">owner_type :character varying</text>
<text text-anchor="start" x="390.1191" y="-618.3" font-family="Times,serif" font-size="14.00" fill="#000000">owner_id :integer</text>
<text text-anchor="start" x="390.1191" y="-604.3" font-family="Times,serif" font-size="14.00" fill="#000000">longitude :numeric</text>
<text text-anchor="start" x="390.1191" y="-590.3" font-family="Times,serif" font-size="14.00" fill="#000000">latitude :numeric</text>
<text text-anchor="start" x="390.1191" y="-576.3" font-family="Times,serif" font-size="14.00" fill="#000000">location :character varying</text>
<text text-anchor="start" x="390.1191" y="-562.3" font-family="Times,serif" font-size="14.00" fill="#000000">place_id :character varying</text>
<text text-anchor="start" x="390.1191" y="-548.3" font-family="Times,serif" font-size="14.00" fill="#000000">created_at :timestamp without time zone</text>
<text text-anchor="start" x="390.1191" y="-534.3" font-family="Times,serif" font-size="14.00" fill="#000000">updated_at :timestamp without time zone</text>
<text text-anchor="start" x="390.1191" y="-520.3" font-family="Times,serif" font-size="14.00" fill="#000000">city :character varying</text>
<text text-anchor="start" x="390.1191" y="-506.3" font-family="Times,serif" font-size="14.00" fill="#000000">state :character varying</text>
<text text-anchor="start" x="390.1191" y="-492.3" font-family="Times,serif" font-size="14.00" fill="#000000">id :integer</text>
</g>
<!-- Admin -->
<g id="node3" class="node">
<title>Admin</title>
<path fill="none" stroke="#000000" d="M1213.3466,-1222.5C1213.3466,-1222.5 1508.6161,-1222.5 1508.6161,-1222.5 1514.6161,-1222.5 1520.6161,-1228.5 1520.6161,-1234.5 1520.6161,-1234.5 1520.6161,-1422.5 1520.6161,-1422.5 1520.6161,-1428.5 1514.6161,-1434.5 1508.6161,-1434.5 1508.6161,-1434.5 1213.3466,-1434.5 1213.3466,-1434.5 1207.3466,-1434.5 1201.3466,-1428.5 1201.3466,-1422.5 1201.3466,-1422.5 1201.3466,-1234.5 1201.3466,-1234.5 1201.3466,-1228.5 1207.3466,-1222.5 1213.3466,-1222.5"/>
<text text-anchor="middle" x="1360.9814" y="-1419.3" font-family="Times,serif" font-size="14.00" fill="#000000">Admin</text>
<polyline fill="none" stroke="#000000" points="1201.3466,-1412.5 1520.6161,-1412.5 "/>
<text text-anchor="start" x="1209.3466" y="-1397.3" font-family="Times,serif" font-size="14.00" fill="#000000">updated_at :timestamp without time zone</text>
<text text-anchor="start" x="1209.3466" y="-1383.3" font-family="Times,serif" font-size="14.00" fill="#000000">email :character varying</text>
<text text-anchor="start" x="1209.3466" y="-1369.3" font-family="Times,serif" font-size="14.00" fill="#000000">encrypted_password :character varying</text>
<text text-anchor="start" x="1209.3466" y="-1355.3" font-family="Times,serif" font-size="14.00" fill="#000000">reset_password_token :character varying</text>
<text text-anchor="start" x="1209.3466" y="-1341.3" font-family="Times,serif" font-size="14.00" fill="#000000">reset_password_sent_at :timestamp without time zone</text>
<text text-anchor="start" x="1209.3466" y="-1327.3" font-family="Times,serif" font-size="14.00" fill="#000000">remember_created_at :timestamp without time zone</text>
<text text-anchor="start" x="1209.3466" y="-1313.3" font-family="Times,serif" font-size="14.00" fill="#000000">sign_in_count :integer</text>
<text text-anchor="start" x="1209.3466" y="-1299.3" font-family="Times,serif" font-size="14.00" fill="#000000">current_sign_in_at :timestamp without time zone</text>
<text text-anchor="start" x="1209.3466" y="-1285.3" font-family="Times,serif" font-size="14.00" fill="#000000">last_sign_in_at :timestamp without time zone</text>
<text text-anchor="start" x="1209.3466" y="-1271.3" font-family="Times,serif" font-size="14.00" fill="#000000">current_sign_in_ip :inet</text>
<text text-anchor="start" x="1209.3466" y="-1257.3" font-family="Times,serif" font-size="14.00" fill="#000000">last_sign_in_ip :inet</text>
<text text-anchor="start" x="1209.3466" y="-1243.3" font-family="Times,serif" font-size="14.00" fill="#000000">created_at :timestamp without time zone</text>
<text text-anchor="start" x="1209.3466" y="-1229.3" font-family="Times,serif" font-size="14.00" fill="#000000">id :integer</text>
</g>
<!-- AuditFinding -->
<g id="node4" class="node">
<title>AuditFinding</title>
<path fill="none" stroke="#000000" d="M399.1191,-.5C399.1191,-.5 622.8437,-.5 622.8437,-.5 628.8437,-.5 634.8437,-6.5 634.8437,-12.5 634.8437,-12.5 634.8437,-130.5 634.8437,-130.5 634.8437,-136.5 628.8437,-142.5 622.8437,-142.5 622.8437,-142.5 399.1191,-142.5 399.1191,-142.5 393.1191,-142.5 387.1191,-136.5 387.1191,-130.5 387.1191,-130.5 387.1191,-12.5 387.1191,-12.5 387.1191,-6.5 393.1191,-.5 399.1191,-.5"/>
<text text-anchor="middle" x="510.9814" y="-127.3" font-family="Times,serif" font-size="14.00" fill="#000000">AuditFinding</text>
<polyline fill="none" stroke="#000000" points="387.1191,-120.5 634.8437,-120.5 "/>
<text text-anchor="start" x="395.1191" y="-105.3" font-family="Times,serif" font-size="14.00" fill="#000000">updated_at :timestamp without time zone</text>
<text text-anchor="start" x="395.1191" y="-91.3" font-family="Times,serif" font-size="14.00" fill="#000000">observation :character varying</text>
<text text-anchor="start" x="395.1191" y="-77.3" font-family="Times,serif" font-size="14.00" fill="#000000">recommendation :text</text>
<text text-anchor="start" x="395.1191" y="-63.3" font-family="Times,serif" font-size="14.00" fill="#000000">marks :double precision</text>
<text text-anchor="start" x="395.1191" y="-49.3" font-family="Times,serif" font-size="14.00" fill="#000000">audit_item_id :integer</text>
<text text-anchor="start" x="395.1191" y="-35.3" font-family="Times,serif" font-size="14.00" fill="#000000">audit_report_id :integer</text>
<text text-anchor="start" x="395.1191" y="-21.3" font-family="Times,serif" font-size="14.00" fill="#000000">created_at :timestamp without time zone</text>
<text text-anchor="start" x="395.1191" y="-7.3" font-family="Times,serif" font-size="14.00" fill="#000000">id :integer</text>
</g>
<!-- AuditItem -->
<g id="node5" class="node">
<title>AuditItem</title>
<path fill="none" stroke="#000000" d="M532.1191,-222.5C532.1191,-222.5 755.8437,-222.5 755.8437,-222.5 761.8437,-222.5 767.8437,-228.5 767.8437,-234.5 767.8437,-234.5 767.8437,-296.5 767.8437,-296.5 767.8437,-302.5 761.8437,-308.5 755.8437,-308.5 755.8437,-308.5 532.1191,-308.5 532.1191,-308.5 526.1191,-308.5 520.1191,-302.5 520.1191,-296.5 520.1191,-296.5 520.1191,-234.5 520.1191,-234.5 520.1191,-228.5 526.1191,-222.5 532.1191,-222.5"/>
<text text-anchor="middle" x="643.9814" y="-293.3" font-family="Times,serif" font-size="14.00" fill="#000000">AuditItem</text>
<polyline fill="none" stroke="#000000" points="520.1191,-286.5 767.8437,-286.5 "/>
<text text-anchor="start" x="528.1191" y="-271.3" font-family="Times,serif" font-size="14.00" fill="#000000">id :integer</text>
<text text-anchor="start" x="528.1191" y="-257.3" font-family="Times,serif" font-size="14.00" fill="#000000">name :character varying</text>
<text text-anchor="start" x="528.1191" y="-243.3" font-family="Times,serif" font-size="14.00" fill="#000000">created_at :timestamp without time zone</text>
<text text-anchor="start" x="528.1191" y="-229.3" font-family="Times,serif" font-size="14.00" fill="#000000">updated_at :timestamp without time zone</text>
</g>
<!-- AuditItem&#45;&gt;AuditFinding -->
<g id="edge1" class="edge">
<title>AuditItem&#45;&gt;AuditFinding</title>
<path fill="none" stroke="#d07fef" d="M609.838,-215.6969C596.3304,-195.9941 580.4677,-172.856 565.4515,-150.9527"/>
<ellipse fill="none" stroke="#d07fef" cx="612.2026" cy="-219.146" rx="4" ry="4"/>
<polygon fill="#d07fef" stroke="#d07fef" points="565.3991,-150.8761 563.4561,-140.0837 562.5718,-146.7522 559.7446,-142.6283 559.7446,-142.6283 559.7446,-142.6283 562.5718,-146.7522 556.033,-145.1728 565.3991,-150.8761 565.3991,-150.8761"/>
</g>
<!-- AuditReport -->
<g id="node6" class="node">
<title>AuditReport</title>
<path fill="none" stroke="#000000" d="M266.1191,-180.5C266.1191,-180.5 489.8437,-180.5 489.8437,-180.5 495.8437,-180.5 501.8437,-186.5 501.8437,-192.5 501.8437,-192.5 501.8437,-338.5 501.8437,-338.5 501.8437,-344.5 495.8437,-350.5 489.8437,-350.5 489.8437,-350.5 266.1191,-350.5 266.1191,-350.5 260.1191,-350.5 254.1191,-344.5 254.1191,-338.5 254.1191,-338.5 254.1191,-192.5 254.1191,-192.5 254.1191,-186.5 260.1191,-180.5 266.1191,-180.5"/>
<text text-anchor="middle" x="377.9814" y="-335.3" font-family="Times,serif" font-size="14.00" fill="#000000">AuditReport</text>
<polyline fill="none" stroke="#000000" points="254.1191,-328.5 501.8437,-328.5 "/>
<text text-anchor="start" x="262.1191" y="-313.3" font-family="Times,serif" font-size="14.00" fill="#000000">updated_at :timestamp without time zone</text>
<text text-anchor="start" x="262.1191" y="-299.3" font-family="Times,serif" font-size="14.00" fill="#000000">good_controls :text</text>
<text text-anchor="start" x="262.1191" y="-285.3" font-family="Times,serif" font-size="14.00" fill="#000000">weak_controls :text</text>
<text text-anchor="start" x="262.1191" y="-271.3" font-family="Times,serif" font-size="14.00" fill="#000000">total_marks :double precision</text>
<text text-anchor="start" x="262.1191" y="-257.3" font-family="Times,serif" font-size="14.00" fill="#000000">result :character varying</text>
<text text-anchor="start" x="262.1191" y="-243.3" font-family="Times,serif" font-size="14.00" fill="#000000">status :integer</text>
<text text-anchor="start" x="262.1191" y="-229.3" font-family="Times,serif" font-size="14.00" fill="#000000">audit_requisition_id :integer</text>
<text text-anchor="start" x="262.1191" y="-215.3" font-family="Times,serif" font-size="14.00" fill="#000000">auditor_id :integer</text>
<text text-anchor="start" x="262.1191" y="-201.3" font-family="Times,serif" font-size="14.00" fill="#000000">created_at :timestamp without time zone</text>
<text text-anchor="start" x="262.1191" y="-187.3" font-family="Times,serif" font-size="14.00" fill="#000000">id :integer</text>
</g>
<!-- AuditReport&#45;&gt;AuditFinding -->
<g id="edge2" class="edge">
<title>AuditReport&#45;&gt;AuditFinding</title>
<path fill="none" stroke="#3d9646" d="M440.9972,-173.5822C446.1283,-166.0977 451.2871,-158.5728 456.351,-151.1864"/>
<ellipse fill="none" stroke="#3d9646" cx="438.5789" cy="-177.1096" rx="4" ry="4"/>
<polygon fill="#3d9646" stroke="#3d9646" points="456.5902,-150.8375 465.9562,-145.1341 459.4175,-146.7135 462.2447,-142.5896 462.2447,-142.5896 462.2447,-142.5896 459.4175,-146.7135 458.5332,-140.0451 456.5902,-150.8375 456.5902,-150.8375"/>
</g>
<!-- Auditor -->
<g id="node7" class="node">
<title>Auditor</title>
<path fill="none" stroke="#000000" d="M75.7602,-818.5C75.7602,-818.5 314.2026,-818.5 314.2026,-818.5 320.2026,-818.5 326.2026,-824.5 326.2026,-830.5 326.2026,-830.5 326.2026,-1074.5 326.2026,-1074.5 326.2026,-1080.5 320.2026,-1086.5 314.2026,-1086.5 314.2026,-1086.5 75.7602,-1086.5 75.7602,-1086.5 69.7602,-1086.5 63.7602,-1080.5 63.7602,-1074.5 63.7602,-1074.5 63.7602,-830.5 63.7602,-830.5 63.7602,-824.5 69.7602,-818.5 75.7602,-818.5"/>
<text text-anchor="middle" x="194.9814" y="-1071.3" font-family="Times,serif" font-size="14.00" fill="#000000">Auditor</text>
<polyline fill="none" stroke="#000000" points="63.7602,-1064.5 326.2026,-1064.5 "/>
<text text-anchor="start" x="71.7602" y="-1049.3" font-family="Times,serif" font-size="14.00" fill="#000000">funds :double precision</text>
<text text-anchor="start" x="71.7602" y="-1035.3" font-family="Times,serif" font-size="14.00" fill="#000000">user_id :integer</text>
<text text-anchor="start" x="71.7602" y="-1021.3" font-family="Times,serif" font-size="14.00" fill="#000000">created_at :timestamp without time zone</text>
<text text-anchor="start" x="71.7602" y="-1007.3" font-family="Times,serif" font-size="14.00" fill="#000000">updated_at :timestamp without time zone</text>
<text text-anchor="start" x="71.7602" y="-993.3" font-family="Times,serif" font-size="14.00" fill="#000000">personal_note :text</text>
<text text-anchor="start" x="71.7602" y="-979.3" font-family="Times,serif" font-size="14.00" fill="#000000">rate :character varying</text>
<text text-anchor="start" x="71.7602" y="-965.3" font-family="Times,serif" font-size="14.00" fill="#000000">schedule :character varying</text>
<text text-anchor="start" x="71.7602" y="-951.3" font-family="Times,serif" font-size="14.00" fill="#000000">gender :integer</text>
<text text-anchor="start" x="71.7602" y="-937.3" font-family="Times,serif" font-size="14.00" fill="#000000">past_experience :character varying</text>
<text text-anchor="start" x="71.7602" y="-923.3" font-family="Times,serif" font-size="14.00" fill="#000000">qualification :text</text>
<text text-anchor="start" x="71.7602" y="-909.3" font-family="Times,serif" font-size="14.00" fill="#000000">skills :character varying</text>
<text text-anchor="start" x="71.7602" y="-895.3" font-family="Times,serif" font-size="14.00" fill="#000000">account_number :character varying</text>
<text text-anchor="start" x="71.7602" y="-881.3" font-family="Times,serif" font-size="14.00" fill="#000000">routing_number :character varying</text>
<text text-anchor="start" x="71.7602" y="-867.3" font-family="Times,serif" font-size="14.00" fill="#000000">mobile_number :character varying</text>
<text text-anchor="start" x="71.7602" y="-853.3" font-family="Times,serif" font-size="14.00" fill="#000000">merchant_account_status :character varying</text>
<text text-anchor="start" x="71.7602" y="-839.3" font-family="Times,serif" font-size="14.00" fill="#000000">merchant_account_id :character varying</text>
<text text-anchor="start" x="71.7602" y="-825.3" font-family="Times,serif" font-size="14.00" fill="#000000">id :integer</text>
</g>
<!-- Auditor&#45;&gt;Address -->
<g id="edge3" class="edge">
<title>Auditor&#45;&gt;Address</title>
<path fill="none" stroke="#482430" d="M264.9565,-812.0065C273.441,-802.3079 282.7697,-793.4465 292.9814,-786 322.4282,-764.5271 342.5463,-788.0476 372.9814,-768 402.9179,-748.2808 428.3918,-719.3551 448.7879,-690.2737"/>
<ellipse fill="none" stroke="#482430" cx="262.3597" cy="-815.0891" rx="4" ry="4"/>
<ellipse fill="#482430" stroke="#482430" cx="451.0604" cy="-686.9717" rx="4" ry="4"/>
</g>
<!-- Offer -->
<g id="node9" class="node">
<title>Offer</title>
<path fill="none" stroke="#000000" d="M798.1191,-208.5C798.1191,-208.5 1021.8437,-208.5 1021.8437,-208.5 1027.8437,-208.5 1033.8437,-214.5 1033.8437,-220.5 1033.8437,-220.5 1033.8437,-310.5 1033.8437,-310.5 1033.8437,-316.5 1027.8437,-322.5 1021.8437,-322.5 1021.8437,-322.5 798.1191,-322.5 798.1191,-322.5 792.1191,-322.5 786.1191,-316.5 786.1191,-310.5 786.1191,-310.5 786.1191,-220.5 786.1191,-220.5 786.1191,-214.5 792.1191,-208.5 798.1191,-208.5"/>
<text text-anchor="middle" x="909.9814" y="-307.3" font-family="Times,serif" font-size="14.00" fill="#000000">Offer</text>
<polyline fill="none" stroke="#000000" points="786.1191,-300.5 1033.8437,-300.5 "/>
<text text-anchor="start" x="794.1191" y="-285.3" font-family="Times,serif" font-size="14.00" fill="#000000">id :integer</text>
<text text-anchor="start" x="794.1191" y="-271.3" font-family="Times,serif" font-size="14.00" fill="#000000">creator_type :character varying</text>
<text text-anchor="start" x="794.1191" y="-257.3" font-family="Times,serif" font-size="14.00" fill="#000000">creator_id :integer</text>
<text text-anchor="start" x="794.1191" y="-243.3" font-family="Times,serif" font-size="14.00" fill="#000000">requisition_id :integer</text>
<text text-anchor="start" x="794.1191" y="-229.3" font-family="Times,serif" font-size="14.00" fill="#000000">created_at :timestamp without time zone</text>
<text text-anchor="start" x="794.1191" y="-215.3" font-family="Times,serif" font-size="14.00" fill="#000000">updated_at :timestamp without time zone</text>
</g>
<!-- Auditor&#45;&gt;Offer -->
<g id="edge6" class="edge">
<title>Auditor&#45;&gt;Offer</title>
<path fill="none" stroke="#3b0165" d="M81.3318,-811.0235C73.988,-797.0465 67.6696,-782.6102 62.9814,-768 13.1439,-612.6892 -48.2541,-520.2975 62.9814,-401 117.2162,-342.8345 701.5066,-376.064 776.9814,-351 793.9064,-345.3795 810.8069,-337.105 826.6052,-327.8856"/>
<ellipse fill="none" stroke="#3b0165" cx="83.3591" cy="-814.771" rx="4" ry="4"/>
<polygon fill="#3b0165" stroke="#3b0165" points="826.6931,-327.8328 837.5817,-326.5333 830.9774,-325.2551 835.2618,-322.6774 835.2618,-322.6774 835.2618,-322.6774 830.9774,-325.2551 832.9418,-318.8215 826.6931,-327.8328 826.6931,-327.8328"/>
</g>
<!-- Requisition -->
<g id="node11" class="node">
<title>Requisition</title>
<path fill="none" stroke="#000000" d="M659.4052,-401.5C659.4052,-401.5 930.5575,-401.5 930.5575,-401.5 936.5575,-401.5 942.5575,-407.5 942.5575,-413.5 942.5575,-413.5 942.5575,-755.5 942.5575,-755.5 942.5575,-761.5 936.5575,-767.5 930.5575,-767.5 930.5575,-767.5 659.4052,-767.5 659.4052,-767.5 653.4052,-767.5 647.4052,-761.5 647.4052,-755.5 647.4052,-755.5 647.4052,-413.5 647.4052,-413.5 647.4052,-407.5 653.4052,-401.5 659.4052,-401.5"/>
<text text-anchor="middle" x="794.9814" y="-752.3" font-family="Times,serif" font-size="14.00" fill="#000000">Requisition</text>
<polyline fill="none" stroke="#000000" points="647.4052,-745.5 942.5575,-745.5 "/>
<text text-anchor="start" x="655.4052" y="-730.3" font-family="Times,serif" font-size="14.00" fill="#000000">approved_at :timestamp without time zone</text>
<text text-anchor="start" x="655.4052" y="-716.3" font-family="Times,serif" font-size="14.00" fill="#000000">subject :character varying</text>
<text text-anchor="start" x="655.4052" y="-702.3" font-family="Times,serif" font-size="14.00" fill="#000000">description :text</text>
<text text-anchor="start" x="655.4052" y="-688.3" font-family="Times,serif" font-size="14.00" fill="#000000">start_date :date</text>
<text text-anchor="start" x="655.4052" y="-674.3" font-family="Times,serif" font-size="14.00" fill="#000000">end_date :date</text>
<text text-anchor="start" x="655.4052" y="-660.3" font-family="Times,serif" font-size="14.00" fill="#000000">status :integer</text>
<text text-anchor="start" x="655.4052" y="-646.3" font-family="Times,serif" font-size="14.00" fill="#000000">owner_type :character varying</text>
<text text-anchor="start" x="655.4052" y="-632.3" font-family="Times,serif" font-size="14.00" fill="#000000">owner_id :integer</text>
<text text-anchor="start" x="655.4052" y="-618.3" font-family="Times,serif" font-size="14.00" fill="#000000">provider_type :character varying</text>
<text text-anchor="start" x="655.4052" y="-604.3" font-family="Times,serif" font-size="14.00" fill="#000000">provider_id :integer</text>
<text text-anchor="start" x="655.4052" y="-590.3" font-family="Times,serif" font-size="14.00" fill="#000000">completed :boolean</text>
<text text-anchor="start" x="655.4052" y="-576.3" font-family="Times,serif" font-size="14.00" fill="#000000">grade_level :character varying</text>
<text text-anchor="start" x="655.4052" y="-562.3" font-family="Times,serif" font-size="14.00" fill="#000000">school_id :integer</text>
<text text-anchor="start" x="655.4052" y="-548.3" font-family="Times,serif" font-size="14.00" fill="#000000">created_at :timestamp without time zone</text>
<text text-anchor="start" x="655.4052" y="-534.3" font-family="Times,serif" font-size="14.00" fill="#000000">updated_at :timestamp without time zone</text>
<text text-anchor="start" x="655.4052" y="-520.3" font-family="Times,serif" font-size="14.00" fill="#000000">report_file_name :character varying</text>
<text text-anchor="start" x="655.4052" y="-506.3" font-family="Times,serif" font-size="14.00" fill="#000000">report_content_type :character varying</text>
<text text-anchor="start" x="655.4052" y="-492.3" font-family="Times,serif" font-size="14.00" fill="#000000">report_file_size :integer</text>
<text text-anchor="start" x="655.4052" y="-478.3" font-family="Times,serif" font-size="14.00" fill="#000000">report_updated_at :timestamp without time zone</text>
<text text-anchor="start" x="655.4052" y="-464.3" font-family="Times,serif" font-size="14.00" fill="#000000">student_id :integer</text>
<text text-anchor="start" x="655.4052" y="-450.3" font-family="Times,serif" font-size="14.00" fill="#000000">published_at :timestamp without time zone</text>
<text text-anchor="start" x="655.4052" y="-436.3" font-family="Times,serif" font-size="14.00" fill="#000000">sponsorship_requisition_id :integer</text>
<text text-anchor="start" x="655.4052" y="-422.3" font-family="Times,serif" font-size="14.00" fill="#000000">report_uploaded_at :timestamp without time zone</text>
<text text-anchor="start" x="655.4052" y="-408.3" font-family="Times,serif" font-size="14.00" fill="#000000">id :integer</text>
</g>
<!-- Auditor&#45;&gt;Requisition -->
<g id="edge5" class="edge">
<title>Auditor&#45;&gt;Requisition</title>
<path fill="none" stroke="#cec155" d="M333.6631,-818.7207C334.1022,-818.4787 334.5416,-818.2385 334.9814,-818 390.2054,-788.055 410.7222,-796.5098 472.6572,-786 542.8129,-774.0953 570.8407,-800.3611 637.9295,-768.0966"/>
<ellipse fill="none" stroke="#cec155" cx="330.056" cy="-820.7939" rx="4" ry="4"/>
<polygon fill="#cec155" stroke="#cec155" points="638.2917,-767.9128 649.2457,-767.401 642.7506,-765.6504 647.2095,-763.388 647.2095,-763.388 647.2095,-763.388 642.7506,-765.6504 645.1733,-759.375 638.2917,-767.9128 638.2917,-767.9128"/>
<text text-anchor="middle" x="522.1435" y="-788.8" font-family="Times,serif" font-size="14.00" fill="#000000">audit_requisitions</text>
</g>
<!-- Transaction -->
<g id="node16" class="node">
<title>Transaction</title>
<path fill="none" stroke="#000000" d="M83.5776,-464.5C83.5776,-464.5 352.3852,-464.5 352.3852,-464.5 358.3852,-464.5 364.3852,-470.5 364.3852,-476.5 364.3852,-476.5 364.3852,-692.5 364.3852,-692.5 364.3852,-698.5 358.3852,-704.5 352.3852,-704.5 352.3852,-704.5 83.5776,-704.5 83.5776,-704.5 77.5776,-704.5 71.5776,-698.5 71.5776,-692.5 71.5776,-692.5 71.5776,-476.5 71.5776,-476.5 71.5776,-470.5 77.5776,-464.5 83.5776,-464.5"/>
<text text-anchor="middle" x="217.9814" y="-689.3" font-family="Times,serif" font-size="14.00" fill="#000000">Transaction</text>
<polyline fill="none" stroke="#000000" points="71.5776,-682.5 364.3852,-682.5 "/>
<text text-anchor="start" x="79.5776" y="-667.3" font-family="Times,serif" font-size="14.00" fill="#000000">updated_at :timestamp without time zone</text>
<text text-anchor="start" x="79.5776" y="-653.3" font-family="Times,serif" font-size="14.00" fill="#000000">bank_account :character varying</text>
<text text-anchor="start" x="79.5776" y="-639.3" font-family="Times,serif" font-size="14.00" fill="#000000">bank_name :character varying</text>
<text text-anchor="start" x="79.5776" y="-625.3" font-family="Times,serif" font-size="14.00" fill="#000000">branch :character varying</text>
<text text-anchor="start" x="79.5776" y="-611.3" font-family="Times,serif" font-size="14.00" fill="#000000">check_number :character varying</text>
<text text-anchor="start" x="79.5776" y="-597.3" font-family="Times,serif" font-size="14.00" fill="#000000">payorder_number :character varying</text>
<text text-anchor="start" x="79.5776" y="-583.3" font-family="Times,serif" font-size="14.00" fill="#000000">amount :double precision</text>
<text text-anchor="start" x="79.5776" y="-569.3" font-family="Times,serif" font-size="14.00" fill="#000000">payer_type :character varying</text>
<text text-anchor="start" x="79.5776" y="-555.3" font-family="Times,serif" font-size="14.00" fill="#000000">payer_id :integer</text>
<text text-anchor="start" x="79.5776" y="-541.3" font-family="Times,serif" font-size="14.00" fill="#000000">receipt_file_name :character varying</text>
<text text-anchor="start" x="79.5776" y="-527.3" font-family="Times,serif" font-size="14.00" fill="#000000">receipt_content_type :character varying</text>
<text text-anchor="start" x="79.5776" y="-513.3" font-family="Times,serif" font-size="14.00" fill="#000000">receipt_file_size :integer</text>
<text text-anchor="start" x="79.5776" y="-499.3" font-family="Times,serif" font-size="14.00" fill="#000000">receipt_updated_at :timestamp without time zone</text>
<text text-anchor="start" x="79.5776" y="-485.3" font-family="Times,serif" font-size="14.00" fill="#000000">created_at :timestamp without time zone</text>
<text text-anchor="start" x="79.5776" y="-471.3" font-family="Times,serif" font-size="14.00" fill="#000000">id :integer</text>
</g>
<!-- Auditor&#45;&gt;Transaction -->
<g id="edge4" class="edge">
<title>Auditor&#45;&gt;Transaction</title>
<path fill="none" stroke="#8e5a0a" d="M203.8865,-810.0179C205.84,-778.7614 207.899,-745.8185 209.8215,-715.0576"/>
<ellipse fill="none" stroke="#8e5a0a" cx="203.6158" cy="-814.3498" rx="4" ry="4"/>
<polygon fill="#8e5a0a" stroke="#8e5a0a" points="209.8441,-714.6955 214.9592,-704.9957 210.156,-709.7052 210.4679,-704.715 210.4679,-704.715 210.4679,-704.715 210.156,-709.7052 205.9767,-704.4342 209.8441,-714.6955 209.8441,-714.6955"/>
</g>
<!-- Invoice -->
<g id="node8" class="node">
<title>Invoice</title>
<path fill="none" stroke="#000000" d="M1550.1191,-1257.5C1550.1191,-1257.5 1773.8437,-1257.5 1773.8437,-1257.5 1779.8437,-1257.5 1785.8437,-1263.5 1785.8437,-1269.5 1785.8437,-1269.5 1785.8437,-1387.5 1785.8437,-1387.5 1785.8437,-1393.5 1779.8437,-1399.5 1773.8437,-1399.5 1773.8437,-1399.5 1550.1191,-1399.5 1550.1191,-1399.5 1544.1191,-1399.5 1538.1191,-1393.5 1538.1191,-1387.5 1538.1191,-1387.5 1538.1191,-1269.5 1538.1191,-1269.5 1538.1191,-1263.5 1544.1191,-1257.5 1550.1191,-1257.5"/>
<text text-anchor="middle" x="1661.9814" y="-1384.3" font-family="Times,serif" font-size="14.00" fill="#000000">Invoice</text>
<polyline fill="none" stroke="#000000" points="1538.1191,-1377.5 1785.8437,-1377.5 "/>
<text text-anchor="start" x="1546.1191" y="-1362.3" font-family="Times,serif" font-size="14.00" fill="#000000">updated_at :timestamp without time zone</text>
<text text-anchor="start" x="1546.1191" y="-1348.3" font-family="Times,serif" font-size="14.00" fill="#000000">issued_at :timestamp without time zone</text>
<text text-anchor="start" x="1546.1191" y="-1334.3" font-family="Times,serif" font-size="14.00" fill="#000000">requisition_id :integer</text>
<text text-anchor="start" x="1546.1191" y="-1320.3" font-family="Times,serif" font-size="14.00" fill="#000000">invoice_amount :double precision</text>
<text text-anchor="start" x="1546.1191" y="-1306.3" font-family="Times,serif" font-size="14.00" fill="#000000">status :integer</text>
<text text-anchor="start" x="1546.1191" y="-1292.3" font-family="Times,serif" font-size="14.00" fill="#000000">invoice_number :character varying</text>
<text text-anchor="start" x="1546.1191" y="-1278.3" font-family="Times,serif" font-size="14.00" fill="#000000">created_at :timestamp without time zone</text>
<text text-anchor="start" x="1546.1191" y="-1264.3" font-family="Times,serif" font-size="14.00" fill="#000000">id :integer</text>
</g>
<!-- Preference -->
<g id="node10" class="node">
<title>Preference</title>
<path fill="none" stroke="#000000" d="M1816.29,-1285.5C1816.29,-1285.5 1927.6728,-1285.5 1927.6728,-1285.5 1933.6728,-1285.5 1939.6728,-1291.5 1939.6728,-1297.5 1939.6728,-1297.5 1939.6728,-1359.5 1939.6728,-1359.5 1939.6728,-1365.5 1933.6728,-1371.5 1927.6728,-1371.5 1927.6728,-1371.5 1816.29,-1371.5 1816.29,-1371.5 1810.29,-1371.5 1804.29,-1365.5 1804.29,-1359.5 1804.29,-1359.5 1804.29,-1297.5 1804.29,-1297.5 1804.29,-1291.5 1810.29,-1285.5 1816.29,-1285.5"/>
<text text-anchor="middle" x="1871.9814" y="-1356.3" font-family="Times,serif" font-size="14.00" fill="#000000">Preference</text>
<polyline fill="none" stroke="#000000" points="1804.29,-1349.5 1939.6728,-1349.5 "/>
<text text-anchor="start" x="1812.29" y="-1334.3" font-family="Times,serif" font-size="14.00" fill="#000000">_id :BSON::ObjectId</text>
<text text-anchor="start" x="1812.29" y="-1320.3" font-family="Times,serif" font-size="14.00" fill="#000000">data :Hash</text>
<text text-anchor="start" x="1812.29" y="-1306.3" font-family="Times,serif" font-size="14.00" fill="#000000">object_id :Integer</text>
<text text-anchor="start" x="1812.29" y="-1292.3" font-family="Times,serif" font-size="14.00" fill="#000000">user_id :Integer</text>
</g>
<!-- Requisition&#45;&gt;AuditReport -->
<g id="edge11" class="edge">
<title>Requisition&#45;&gt;AuditReport</title>
<path fill="none" stroke="#501731" d="M640.822,-402.3229C640.2094,-401.879 639.5958,-401.438 638.9814,-401 589.2492,-365.5475 565.3823,-378.7618 510.9814,-351 510.4312,-350.7193 509.8805,-350.4368 509.3292,-350.1528"/>
<ellipse fill="none" stroke="#501731" cx="644.1418" cy="-404.7961" rx="4" ry="4"/>
<ellipse fill="#501731" stroke="#501731" cx="505.6769" cy="-348.2339" rx="4" ry="4"/>
</g>
<!-- Requisition&#45;&gt;Offer -->
<g id="edge7" class="edge">
<title>Requisition&#45;&gt;Offer</title>
<path fill="none" stroke="#476857" d="M778.7987,-393.4919C781.1072,-385.0713 784.035,-376.8653 787.6825,-369 794.3693,-354.5812 804.164,-341.4427 815.3461,-329.7312"/>
<ellipse fill="none" stroke="#476857" cx="777.8207" cy="-397.4014" rx="4" ry="4"/>
<polygon fill="#476857" stroke="#476857" points="815.3914,-329.686 825.65,-325.8114 818.932,-326.1555 822.4725,-322.6249 822.4725,-322.6249 822.4725,-322.6249 818.932,-326.1555 819.295,-319.4385 815.3914,-329.686 815.3914,-329.686"/>
<text text-anchor="middle" x="840.1308" y="-371.8" font-family="Times,serif" font-size="14.00" fill="#000000">sponsorship_offers</text>
</g>
<!-- Requisition&#45;&gt;Offer -->
<g id="edge8" class="edge">
<title>Requisition&#45;&gt;Offer</title>
<path fill="none" stroke="#c1abe5" d="M890.6177,-393.5445C891.7902,-390.0192 892.9132,-386.5024 893.9814,-383 898.8303,-367.1001 902.2122,-349.5413 904.57,-332.9518"/>
<ellipse fill="none" stroke="#c1abe5" cx="889.2686" cy="-397.4886" rx="4" ry="4"/>
<polygon fill="#c1abe5" stroke="#c1abe5" points="904.605,-332.6857 910.3713,-323.3583 905.2574,-327.7284 905.9098,-322.7711 905.9098,-322.7711 905.9098,-322.7711 905.2574,-327.7284 901.4482,-322.184 904.605,-332.6857 904.605,-332.6857"/>
<text text-anchor="middle" x="930.6791" y="-371.8" font-family="Times,serif" font-size="14.00" fill="#000000">audit_offers</text>
</g>
<!-- Requisition&#45;&gt;Requisition -->
<g id="edge10" class="edge">
<title>Requisition&#45;&gt;Requisition</title>
<path fill="none" stroke="#eda65c" d="M949.3266,-608.8724C956.4123,-602.701 960.5575,-594.5769 960.5575,-584.5 960.5575,-574.4231 956.4123,-566.299 949.3266,-560.1276"/>
<ellipse fill="none" stroke="#eda65c" cx="945.965" cy="-611.2727" rx="4" ry="4"/>
<ellipse fill="#eda65c" stroke="#eda65c" cx="945.965" cy="-557.7273" rx="4" ry="4"/>
<text text-anchor="middle" x="1007.9955" y="-580.3" font-family="Times,serif" font-size="14.00" fill="#000000">audit_requisition</text>
</g>
<!-- Review -->
<g id="node12" class="node">
<title>Review</title>
<path fill="none" stroke="#000000" d="M1064.1191,-194.5C1064.1191,-194.5 1287.8437,-194.5 1287.8437,-194.5 1293.8437,-194.5 1299.8437,-200.5 1299.8437,-206.5 1299.8437,-206.5 1299.8437,-324.5 1299.8437,-324.5 1299.8437,-330.5 1293.8437,-336.5 1287.8437,-336.5 1287.8437,-336.5 1064.1191,-336.5 1064.1191,-336.5 1058.1191,-336.5 1052.1191,-330.5 1052.1191,-324.5 1052.1191,-324.5 1052.1191,-206.5 1052.1191,-206.5 1052.1191,-200.5 1058.1191,-194.5 1064.1191,-194.5"/>
<text text-anchor="middle" x="1175.9814" y="-321.3" font-family="Times,serif" font-size="14.00" fill="#000000">Review</text>
<polyline fill="none" stroke="#000000" points="1052.1191,-314.5 1299.8437,-314.5 "/>
<text text-anchor="start" x="1060.1191" y="-299.3" font-family="Times,serif" font-size="14.00" fill="#000000">updated_at :timestamp without time zone</text>
<text text-anchor="start" x="1060.1191" y="-285.3" font-family="Times,serif" font-size="14.00" fill="#000000">rating :double precision</text>
<text text-anchor="start" x="1060.1191" y="-271.3" font-family="Times,serif" font-size="14.00" fill="#000000">comment :text</text>
<text text-anchor="start" x="1060.1191" y="-257.3" font-family="Times,serif" font-size="14.00" fill="#000000">requisition_id :integer</text>
<text text-anchor="start" x="1060.1191" y="-243.3" font-family="Times,serif" font-size="14.00" fill="#000000">ratee_id :integer</text>
<text text-anchor="start" x="1060.1191" y="-229.3" font-family="Times,serif" font-size="14.00" fill="#000000">rater_id :integer</text>
<text text-anchor="start" x="1060.1191" y="-215.3" font-family="Times,serif" font-size="14.00" fill="#000000">created_at :timestamp without time zone</text>
<text text-anchor="start" x="1060.1191" y="-201.3" font-family="Times,serif" font-size="14.00" fill="#000000">id :integer</text>
</g>
<!-- Requisition&#45;&gt;Review -->
<g id="edge9" class="edge">
<title>Requisition&#45;&gt;Review</title>
<path fill="none" stroke="#f1ea6c" d="M948.7722,-455.7355C994.9768,-417.0498 1044.176,-375.8567 1084.9343,-341.731"/>
<ellipse fill="none" stroke="#f1ea6c" cx="945.6255" cy="-458.3701" rx="4" ry="4"/>
<ellipse fill="#f1ea6c" stroke="#f1ea6c" cx="1088.0761" cy="-339.1005" rx="4" ry="4"/>
</g>
<!-- School -->
<g id="node13" class="node">
<title>School</title>
<path fill="none" stroke="#000000" d="M356.1191,-846.5C356.1191,-846.5 579.8437,-846.5 579.8437,-846.5 585.8437,-846.5 591.8437,-852.5 591.8437,-858.5 591.8437,-858.5 591.8437,-1046.5 591.8437,-1046.5 591.8437,-1052.5 585.8437,-1058.5 579.8437,-1058.5 579.8437,-1058.5 356.1191,-1058.5 356.1191,-1058.5 350.1191,-1058.5 344.1191,-1052.5 344.1191,-1046.5 344.1191,-1046.5 344.1191,-858.5 344.1191,-858.5 344.1191,-852.5 350.1191,-846.5 356.1191,-846.5"/>
<text text-anchor="middle" x="467.9814" y="-1043.3" font-family="Times,serif" font-size="14.00" fill="#000000">School</text>
<polyline fill="none" stroke="#000000" points="344.1191,-1036.5 591.8437,-1036.5 "/>
<text text-anchor="start" x="352.1191" y="-1021.3" font-family="Times,serif" font-size="14.00" fill="#000000">funds :double precision</text>
<text text-anchor="start" x="352.1191" y="-1007.3" font-family="Times,serif" font-size="14.00" fill="#000000">name :character varying</text>
<text text-anchor="start" x="352.1191" y="-993.3" font-family="Times,serif" font-size="14.00" fill="#000000">overview :text</text>
<text text-anchor="start" x="352.1191" y="-979.3" font-family="Times,serif" font-size="14.00" fill="#000000">address :character varying</text>
<text text-anchor="start" x="352.1191" y="-965.3" font-family="Times,serif" font-size="14.00" fill="#000000">state :character varying</text>
<text text-anchor="start" x="352.1191" y="-951.3" font-family="Times,serif" font-size="14.00" fill="#000000">city :character varying</text>
<text text-anchor="start" x="352.1191" y="-937.3" font-family="Times,serif" font-size="14.00" fill="#000000">staffs :character varying</text>
<text text-anchor="start" x="352.1191" y="-923.3" font-family="Times,serif" font-size="14.00" fill="#000000">students :character varying</text>
<text text-anchor="start" x="352.1191" y="-909.3" font-family="Times,serif" font-size="14.00" fill="#000000">foundation_date :date</text>
<text text-anchor="start" x="352.1191" y="-895.3" font-family="Times,serif" font-size="14.00" fill="#000000">created_at :timestamp without time zone</text>
<text text-anchor="start" x="352.1191" y="-881.3" font-family="Times,serif" font-size="14.00" fill="#000000">updated_at :timestamp without time zone</text>
<text text-anchor="start" x="352.1191" y="-867.3" font-family="Times,serif" font-size="14.00" fill="#000000">fees :double precision</text>
<text text-anchor="start" x="352.1191" y="-853.3" font-family="Times,serif" font-size="14.00" fill="#000000">id :integer</text>
</g>
<!-- School&#45;&gt;Address -->
<g id="edge12" class="edge">
<title>School&#45;&gt;Address</title>
<path fill="none" stroke="#54a3c4" d="M479.8164,-837.8871C484.627,-791.2999 490.1556,-737.7598 494.8878,-691.9322"/>
<ellipse fill="none" stroke="#54a3c4" cx="479.3835" cy="-842.0803" rx="4" ry="4"/>
<ellipse fill="#54a3c4" stroke="#54a3c4" cx="495.3204" cy="-687.743" rx="4" ry="4"/>
</g>
<!-- School&#45;&gt;Requisition -->
<g id="edge13" class="edge">
<title>School&#45;&gt;Requisition</title>
<path fill="none" stroke="#8fc9c3" d="M536.2189,-839.9833C552.0069,-820.0845 570.0884,-800.9739 589.9814,-786 608.5177,-772.0473 619.9535,-781.2744 638.9814,-768 639.0671,-767.9402 639.1528,-767.8803 639.2385,-767.8204"/>
<ellipse fill="none" stroke="#8fc9c3" cx="533.6303" cy="-843.3103" rx="4" ry="4"/>
<polygon fill="#8fc9c3" stroke="#8fc9c3" points="639.0556,-767.953 649.7936,-765.7289 643.1043,-765.019 647.153,-762.085 647.153,-762.085 647.153,-762.085 643.1043,-765.019 644.5124,-758.4412 639.0556,-767.953 639.0556,-767.953"/>
</g>
<!-- School&#45;&gt;Transaction -->
<g id="edge14" class="edge">
<title>School&#45;&gt;Transaction</title>
<path fill="none" stroke="#bec75b" d="M449.6318,-838.6584C442.5097,-819.4294 432.6433,-800.902 418.9814,-786 404.1455,-769.8175 390.834,-780.7773 372.9814,-768 350.9337,-752.2203 330.0874,-732.62 311.2543,-712.1575"/>
<ellipse fill="none" stroke="#bec75b" cx="451.0027" cy="-842.5712" rx="4" ry="4"/>
<polygon fill="#bec75b" stroke="#bec75b" points="311.1148,-712.0031 307.7465,-701.5673 307.7616,-708.2942 304.4084,-704.5852 304.4084,-704.5852 304.4084,-704.5852 307.7616,-708.2942 301.0703,-707.603 311.1148,-712.0031 311.1148,-712.0031"/>
</g>
<!-- Sponsor -->
<g id="node14" class="node">
<title>Sponsor</title>
<path fill="none" stroke="#000000" d="M912.1191,-874.5C912.1191,-874.5 1135.8437,-874.5 1135.8437,-874.5 1141.8437,-874.5 1147.8437,-880.5 1147.8437,-886.5 1147.8437,-886.5 1147.8437,-1018.5 1147.8437,-1018.5 1147.8437,-1024.5 1141.8437,-1030.5 1135.8437,-1030.5 1135.8437,-1030.5 912.1191,-1030.5 912.1191,-1030.5 906.1191,-1030.5 900.1191,-1024.5 900.1191,-1018.5 900.1191,-1018.5 900.1191,-886.5 900.1191,-886.5 900.1191,-880.5 906.1191,-874.5 912.1191,-874.5"/>
<text text-anchor="middle" x="1023.9814" y="-1015.3" font-family="Times,serif" font-size="14.00" fill="#000000">Sponsor</text>
<polyline fill="none" stroke="#000000" points="900.1191,-1008.5 1147.8437,-1008.5 "/>
<text text-anchor="start" x="908.1191" y="-993.3" font-family="Times,serif" font-size="14.00" fill="#000000">funds :double precision</text>
<text text-anchor="start" x="908.1191" y="-979.3" font-family="Times,serif" font-size="14.00" fill="#000000">user_id :integer</text>
<text text-anchor="start" x="908.1191" y="-965.3" font-family="Times,serif" font-size="14.00" fill="#000000">created_at :timestamp without time zone</text>
<text text-anchor="start" x="908.1191" y="-951.3" font-family="Times,serif" font-size="14.00" fill="#000000">updated_at :timestamp without time zone</text>
<text text-anchor="start" x="908.1191" y="-937.3" font-family="Times,serif" font-size="14.00" fill="#000000">volunteer :boolean</text>
<text text-anchor="start" x="908.1191" y="-923.3" font-family="Times,serif" font-size="14.00" fill="#000000">organization_title :character varying</text>
<text text-anchor="start" x="908.1191" y="-909.3" font-family="Times,serif" font-size="14.00" fill="#000000">organization :boolean</text>
<text text-anchor="start" x="908.1191" y="-895.3" font-family="Times,serif" font-size="14.00" fill="#000000">braintree_customer_id :character varying</text>
<text text-anchor="start" x="908.1191" y="-881.3" font-family="Times,serif" font-size="14.00" fill="#000000">id :integer</text>
</g>
<!-- Sponsor&#45;&gt;Address -->
<g id="edge15" class="edge">
<title>Sponsor&#45;&gt;Address</title>
<path fill="none" stroke="#8b206c" d="M956.4666,-868.3901C937.2104,-849.1781 914.9,-830.702 890.9814,-818 852.642,-797.6399 837.3707,-809.359 794.9814,-800 770.3506,-794.5619 764.6408,-791.3066 739.9814,-786 694.9778,-776.3155 676.9608,-792.4891 637.9814,-768 607.3968,-748.785 581.7419,-719.6674 561.4253,-690.2515"/>
<ellipse fill="none" stroke="#8b206c" cx="959.5395" cy="-871.5174" rx="4" ry="4"/>
<ellipse fill="#8b206c" stroke="#8b206c" cx="559.1495" cy="-686.8889" rx="4" ry="4"/>
</g>
<!-- Sponsor&#45;&gt;Offer -->
<g id="edge19" class="edge">
<title>Sponsor&#45;&gt;Offer</title>
<path fill="none" stroke="#fce2e8" d="M1054.7763,-866.404C1089.6807,-753.8981 1133.3152,-553.301 1063.9814,-401 1051.454,-373.4819 1030.2973,-349.3127 1007.6131,-329.2978"/>
<ellipse fill="none" stroke="#fce2e8" cx="1053.4789" cy="-870.5341" rx="4" ry="4"/>
<polygon fill="#fce2e8" stroke="#fce2e8" points="1007.4683,-329.174 1002.7983,-319.2522 1003.6701,-325.9223 999.8718,-322.6706 999.8718,-322.6706 999.8718,-322.6706 1003.6701,-325.9223 996.9453,-326.089 1007.4683,-329.174 1007.4683,-329.174"/>
</g>
<!-- Sponsor&#45;&gt;Requisition -->
<g id="edge16" class="edge">
<title>Sponsor&#45;&gt;Requisition</title>
<path fill="none" stroke="#4be4c6" d="M955.5422,-868.2898C936.4377,-849.294 914.4301,-830.9448 890.9814,-818 858.5729,-800.109 833.8009,-828.062 809.6572,-800 803.5055,-792.85 798.4211,-785.0248 794.2534,-776.7259"/>
<ellipse fill="none" stroke="#4be4c6" cx="958.5665" cy="-871.3537" rx="4" ry="4"/>
<polygon fill="#4be4c6" stroke="#4be4c6" points="794.2188,-776.6495 794.1811,-765.6837 792.1513,-772.097 790.0838,-767.5445 790.0838,-767.5445 790.0838,-767.5445 792.1513,-772.097 785.9865,-769.4052 794.2188,-776.6495 794.2188,-776.6495"/>
<text text-anchor="middle" x="859.1435" y="-788.8" font-family="Times,serif" font-size="14.00" fill="#000000">audit_requisitions</text>
</g>
<!-- Sponsor&#45;&gt;Requisition -->
<g id="edge17" class="edge">
<title>Sponsor&#45;&gt;Requisition</title>
<path fill="none" stroke="#69d3ea" d="M970.9979,-867.3563C953.9001,-839.8803 934.1994,-808.2216 914.3043,-776.2503"/>
<ellipse fill="none" stroke="#69d3ea" cx="973.303" cy="-871.0605" rx="4" ry="4"/>
<polygon fill="#69d3ea" stroke="#69d3ea" points="914.2512,-776.1649 912.7884,-765.297 911.6094,-771.9197 908.9677,-767.6746 908.9677,-767.6746 908.9677,-767.6746 911.6094,-771.9197 905.1471,-770.0521 914.2512,-776.1649 914.2512,-776.1649"/>
<text text-anchor="middle" x="992.5951" y="-788.8" font-family="Times,serif" font-size="14.00" fill="#000000">sponsorship_requisitions</text>
</g>
<!-- Sponsor&#45;&gt;Review -->
<g id="edge18" class="edge">
<title>Sponsor&#45;&gt;Review</title>
<path fill="none" stroke="#5830de" d="M1063.8012,-866.8777C1072.8881,-845.3438 1081.9321,-822.0721 1088.9814,-800 1102.5152,-757.624 1143.5901,-485.7585 1164.086,-346.8938"/>
<ellipse fill="none" stroke="#5830de" cx="1062.1565" cy="-870.7373" rx="4" ry="4"/>
<polygon fill="#5830de" stroke="#5830de" points="1164.1267,-346.6171 1170.0372,-337.3804 1164.856,-341.6706 1165.5853,-336.724 1165.5853,-336.724 1165.5853,-336.724 1164.856,-341.6706 1161.1334,-336.0677 1164.1267,-346.6171 1164.1267,-346.6171"/>
</g>
<!-- Student -->
<g id="node15" class="node">
<title>Student</title>
<path fill="none" stroke="#000000" d="M622.0844,-867.5C622.0844,-867.5 869.8783,-867.5 869.8783,-867.5 875.8783,-867.5 881.8783,-873.5 881.8783,-879.5 881.8783,-879.5 881.8783,-1025.5 881.8783,-1025.5 881.8783,-1031.5 875.8783,-1037.5 869.8783,-1037.5 869.8783,-1037.5 622.0844,-1037.5 622.0844,-1037.5 616.0844,-1037.5 610.0844,-1031.5 610.0844,-1025.5 610.0844,-1025.5 610.0844,-879.5 610.0844,-879.5 610.0844,-873.5 616.0844,-867.5 622.0844,-867.5"/>
<text text-anchor="middle" x="745.9814" y="-1022.3" font-family="Times,serif" font-size="14.00" fill="#000000">Student</text>
<polyline fill="none" stroke="#000000" points="610.0844,-1015.5 881.8783,-1015.5 "/>
<text text-anchor="start" x="618.0844" y="-1000.3" font-family="Times,serif" font-size="14.00" fill="#000000">guardian_name :character varying</text>
<text text-anchor="start" x="618.0844" y="-986.3" font-family="Times,serif" font-size="14.00" fill="#000000">user_id :integer</text>
<text text-anchor="start" x="618.0844" y="-972.3" font-family="Times,serif" font-size="14.00" fill="#000000">created_at :timestamp without time zone</text>
<text text-anchor="start" x="618.0844" y="-958.3" font-family="Times,serif" font-size="14.00" fill="#000000">updated_at :timestamp without time zone</text>
<text text-anchor="start" x="618.0844" y="-944.3" font-family="Times,serif" font-size="14.00" fill="#000000">age :character varying</text>
<text text-anchor="start" x="618.0844" y="-930.3" font-family="Times,serif" font-size="14.00" fill="#000000">guardian_monthly_income :character varying</text>
<text text-anchor="start" x="618.0844" y="-916.3" font-family="Times,serif" font-size="14.00" fill="#000000">gender :integer</text>
<text text-anchor="start" x="618.0844" y="-902.3" font-family="Times,serif" font-size="14.00" fill="#000000">date_of_birth :date</text>
<text text-anchor="start" x="618.0844" y="-888.3" font-family="Times,serif" font-size="14.00" fill="#000000">current_school :character varying</text>
<text text-anchor="start" x="618.0844" y="-874.3" font-family="Times,serif" font-size="14.00" fill="#000000">id :integer</text>
</g>
<!-- Student&#45;&gt;Address -->
<g id="edge20" class="edge">
<title>Student&#45;&gt;Address</title>
<path fill="none" stroke="#9a7496" d="M640.1113,-861.2953C621.8351,-842.2941 604.1795,-821.4733 589.9814,-800 568.1678,-767.0092 550.7052,-727.5045 537.4746,-691.3818"/>
<ellipse fill="none" stroke="#9a7496" cx="643.0083" cy="-864.2678" rx="4" ry="4"/>
<ellipse fill="#9a7496" stroke="#9a7496" cx="536.0721" cy="-687.4915" rx="4" ry="4"/>
</g>
<!-- Student&#45;&gt;Requisition -->
<g id="edge21" class="edge">
<title>Student&#45;&gt;Requisition</title>
<path fill="none" stroke="#cc085e" d="M637.2101,-861.5037C607.9679,-831.864 587.0236,-802.3931 597.7538,-786 608.7036,-769.2714 622.9319,-779.9231 638.9814,-768 639.0653,-767.9377 639.1492,-767.8753 639.2331,-767.8128"/>
<ellipse fill="none" stroke="#cc085e" cx="640.3277" cy="-864.6077" rx="4" ry="4"/>
<polygon fill="#cc085e" stroke="#cc085e" points="639.0575,-767.9477 649.7296,-765.4264 643.0232,-764.9025 646.989,-761.8573 646.989,-761.8573 646.989,-761.8573 643.0232,-764.9025 644.2483,-758.2881 639.0575,-767.9477 639.0575,-767.9477"/>
<text text-anchor="middle" x="666.5951" y="-788.8" font-family="Times,serif" font-size="14.00" fill="#000000">sponsorship_requisitions</text>
</g>
<!-- Student&#45;&gt;Requisition -->
<g id="edge22" class="edge">
<title>Student&#45;&gt;Requisition</title>
<path fill="none" stroke="#53be32" d="M758.4321,-858.9925C761.7575,-834.0184 765.4771,-806.0829 769.236,-777.853"/>
<ellipse fill="none" stroke="#53be32" cx="757.8741" cy="-863.1834" rx="4" ry="4"/>
<polygon fill="#53be32" stroke="#53be32" points="769.2467,-777.7724 775.0272,-768.4538 769.9066,-772.8161 770.5666,-767.8599 770.5666,-767.8599 770.5666,-767.8599 769.9066,-772.8161 766.106,-767.2659 769.2467,-777.7724 769.2467,-777.7724"/>
</g>
<!-- User -->
<g id="node17" class="node">
<title>User</title>
<path fill="none" stroke="#000000" d="M876.3466,-1124.5C876.3466,-1124.5 1171.6161,-1124.5 1171.6161,-1124.5 1177.6161,-1124.5 1183.6161,-1130.5 1183.6161,-1136.5 1183.6161,-1136.5 1183.6161,-1520.5 1183.6161,-1520.5 1183.6161,-1526.5 1177.6161,-1532.5 1171.6161,-1532.5 1171.6161,-1532.5 876.3466,-1532.5 876.3466,-1532.5 870.3466,-1532.5 864.3466,-1526.5 864.3466,-1520.5 864.3466,-1520.5 864.3466,-1136.5 864.3466,-1136.5 864.3466,-1130.5 870.3466,-1124.5 876.3466,-1124.5"/>
<text text-anchor="middle" x="1023.9814" y="-1517.3" font-family="Times,serif" font-size="14.00" fill="#000000">User</text>
<polyline fill="none" stroke="#000000" points="864.3466,-1510.5 1183.6161,-1510.5 "/>
<text text-anchor="start" x="872.3466" y="-1495.3" font-family="Times,serif" font-size="14.00" fill="#000000">username :character varying</text>
<text text-anchor="start" x="872.3466" y="-1481.3" font-family="Times,serif" font-size="14.00" fill="#000000">email :character varying</text>
<text text-anchor="start" x="872.3466" y="-1467.3" font-family="Times,serif" font-size="14.00" fill="#000000">encrypted_password :character varying</text>
<text text-anchor="start" x="872.3466" y="-1453.3" font-family="Times,serif" font-size="14.00" fill="#000000">reset_password_token :character varying</text>
<text text-anchor="start" x="872.3466" y="-1439.3" font-family="Times,serif" font-size="14.00" fill="#000000">reset_password_sent_at :timestamp without time zone</text>
<text text-anchor="start" x="872.3466" y="-1425.3" font-family="Times,serif" font-size="14.00" fill="#000000">remember_created_at :timestamp without time zone</text>
<text text-anchor="start" x="872.3466" y="-1411.3" font-family="Times,serif" font-size="14.00" fill="#000000">sign_in_count :integer</text>
<text text-anchor="start" x="872.3466" y="-1397.3" font-family="Times,serif" font-size="14.00" fill="#000000">current_sign_in_at :timestamp without time zone</text>
<text text-anchor="start" x="872.3466" y="-1383.3" font-family="Times,serif" font-size="14.00" fill="#000000">last_sign_in_at :timestamp without time zone</text>
<text text-anchor="start" x="872.3466" y="-1369.3" font-family="Times,serif" font-size="14.00" fill="#000000">current_sign_in_ip :character varying</text>
<text text-anchor="start" x="872.3466" y="-1355.3" font-family="Times,serif" font-size="14.00" fill="#000000">last_sign_in_ip :character varying</text>
<text text-anchor="start" x="872.3466" y="-1341.3" font-family="Times,serif" font-size="14.00" fill="#000000">created_at :timestamp without time zone</text>
<text text-anchor="start" x="872.3466" y="-1327.3" font-family="Times,serif" font-size="14.00" fill="#000000">updated_at :timestamp without time zone</text>
<text text-anchor="start" x="872.3466" y="-1313.3" font-family="Times,serif" font-size="14.00" fill="#000000">name :character varying</text>
<text text-anchor="start" x="872.3466" y="-1299.3" font-family="Times,serif" font-size="14.00" fill="#000000">first_name :character varying</text>
<text text-anchor="start" x="872.3466" y="-1285.3" font-family="Times,serif" font-size="14.00" fill="#000000">last_name :character varying</text>
<text text-anchor="start" x="872.3466" y="-1271.3" font-family="Times,serif" font-size="14.00" fill="#000000">profile_status :integer</text>
<text text-anchor="start" x="872.3466" y="-1257.3" font-family="Times,serif" font-size="14.00" fill="#000000">missing_profile_step :character varying</text>
<text text-anchor="start" x="872.3466" y="-1243.3" font-family="Times,serif" font-size="14.00" fill="#000000">roles :character varying</text>
<text text-anchor="start" x="872.3466" y="-1229.3" font-family="Times,serif" font-size="14.00" fill="#000000">active_participant :character varying</text>
<text text-anchor="start" x="872.3466" y="-1215.3" font-family="Times,serif" font-size="14.00" fill="#000000">avatar_file_name :character varying</text>
<text text-anchor="start" x="872.3466" y="-1201.3" font-family="Times,serif" font-size="14.00" fill="#000000">avatar_content_type :character varying</text>
<text text-anchor="start" x="872.3466" y="-1187.3" font-family="Times,serif" font-size="14.00" fill="#000000">avatar_file_size :integer</text>
<text text-anchor="start" x="872.3466" y="-1173.3" font-family="Times,serif" font-size="14.00" fill="#000000">avatar_updated_at :timestamp without time zone</text>
<text text-anchor="start" x="872.3466" y="-1159.3" font-family="Times,serif" font-size="14.00" fill="#000000">national_id :character varying</text>
<text text-anchor="start" x="872.3466" y="-1145.3" font-family="Times,serif" font-size="14.00" fill="#000000">bio_data :text</text>
<text text-anchor="start" x="872.3466" y="-1131.3" font-family="Times,serif" font-size="14.00" fill="#000000">id :integer</text>
</g>
<!-- User&#45;&gt;Auditor -->
<g id="edge25" class="edge">
<title>User&#45;&gt;Auditor</title>
<path fill="none" stroke="#7c68c7" d="M857.0133,-1124.5371C856.6698,-1124.357 856.3258,-1124.178 855.9814,-1124 752.8673,-1070.7122 441.0513,-1134.1304 334.9814,-1087 334.5242,-1086.7968 334.0676,-1086.5915 333.6116,-1086.3841"/>
<ellipse fill="none" stroke="#7c68c7" cx="860.6564" cy="-1126.5408" rx="4" ry="4"/>
<ellipse fill="#7c68c7" stroke="#7c68c7" cx="329.8802" cy="-1084.5816" rx="4" ry="4"/>
</g>
<!-- User&#45;&gt;Review -->
<g id="edge26" class="edge">
<title>User&#45;&gt;Review</title>
<path fill="none" stroke="#8a0f0f" d="M1147.5756,-1116.8581C1151.1324,-1106.9216 1154.3014,-1096.9436 1156.9814,-1087 1175.8442,-1017.0125 1176.7319,-540.3779 1176.2966,-346.8824"/>
<ellipse fill="none" stroke="#8a0f0f" cx="1146.1637" cy="-1120.6935" rx="4" ry="4"/>
<polygon fill="#8a0f0f" stroke="#8a0f0f" points="1176.2964,-346.7718 1180.772,-336.7609 1176.2842,-341.7718 1176.272,-336.7718 1176.272,-336.7718 1176.272,-336.7718 1176.2842,-341.7718 1171.772,-336.7828 1176.2964,-346.7718 1176.2964,-346.7718"/>
<text text-anchor="middle" x="1221.954" y="-788.8" font-family="Times,serif" font-size="14.00" fill="#000000">received_reviews</text>
</g>
<!-- User&#45;&gt;Review -->
<g id="edge27" class="edge">
<title>User&#45;&gt;Review</title>
<path fill="none" stroke="#94397f" d="M1162.824,-1116.9482C1168.1436,-1106.9363 1173.2268,-1096.9237 1177.9814,-1087 1236.1581,-965.5733 1253.1364,-932.86 1274.9814,-800 1301.5219,-638.5817 1246.7325,-450.7052 1208.5828,-346.2059"/>
<ellipse fill="none" stroke="#94397f" cx="1160.8024" cy="-1120.713" rx="4" ry="4"/>
<polygon fill="#94397f" stroke="#94397f" points="1208.5244,-346.0474 1209.2831,-335.1078 1206.793,-341.3567 1205.0615,-336.6661 1205.0615,-336.6661 1205.0615,-336.6661 1206.793,-341.3567 1200.8399,-338.2243 1208.5244,-346.0474 1208.5244,-346.0474"/>
<text text-anchor="middle" x="1316.8022" y="-788.8" font-family="Times,serif" font-size="14.00" fill="#000000">given_reviews</text>
</g>
<!-- User&#45;&gt;Sponsor -->
<g id="edge23" class="edge">
<title>User&#45;&gt;Sponsor</title>
<path fill="none" stroke="#6952f5" d="M1023.9814,-1116.0958C1023.9814,-1088.8823 1023.9814,-1062.3627 1023.9814,-1038.8701"/>
<ellipse fill="none" stroke="#6952f5" cx="1023.9814" cy="-1120.2699" rx="4" ry="4"/>
<ellipse fill="#6952f5" stroke="#6952f5" cx="1023.9814" cy="-1034.6906" rx="4" ry="4"/>
</g>
<!-- User&#45;&gt;Student -->
<g id="edge24" class="edge">
<title>User&#45;&gt;Student</title>
<path fill="none" stroke="#f01a9c" d="M867.9648,-1117.4848C849.0142,-1091.8537 830.4919,-1066.802 813.8356,-1044.2741"/>
<ellipse fill="none" stroke="#f01a9c" cx="870.6034" cy="-1121.0536" rx="4" ry="4"/>
<ellipse fill="#f01a9c" stroke="#f01a9c" cx="811.3371" cy="-1040.8948" rx="4" ry="4"/>
</g>
</g>
</svg>
